Homework8
…
bike_data <- read_csv("https://www4.stat.ncsu.edu/~online/datasets/SeoulBikeData.csv",
                     locale = locale(encoding="latin1"))

Rows: 8760 Columns: 14
── Column specification ────────────────────────────────────────────────────────
Delimiter: ","
chr  (4): Date, Seasons, Holiday, Functioning Day
dbl (10): Rented Bike Count, Hour, Temperature(°C), Humidity(%), Wind speed ...

ℹ Use `spec()` to retrieve the full column specification for this data.
ℹ Specify the column types or set `show_col_types = FALSE` to quiet this message.

bike_data

# A tibble: 8,760 × 14
   Date       `Rented Bike Count`  Hour `Temperature(°C)` `Humidity(%)`
   <chr>                    <dbl> <dbl>             <dbl>         <dbl>
 1 01/12/2017                 254     0              -5.2            37
 2 01/12/2017                 204     1              -5.5            38
 3 01/12/2017                 173     2              -6              39
 4 01/12/2017                 107     3              -6.2            40
 5 01/12/2017                  78     4              -6              36
 6 01/12/2017                 100     5              -6.4            37
 7 01/12/2017                 181     6              -6.6            35
 8 01/12/2017                 460     7              -7.4            38
 9 01/12/2017                 930     8              -7.6            37
10 01/12/2017                 490     9              -6.5            27
# ℹ 8,750 more rows
# ℹ 9 more variables: `Wind speed (m/s)` <dbl>, `Visibility (10m)` <dbl>,
#   `Dew point temperature(°C)` <dbl>, `Solar Radiation (MJ/m2)` <dbl>,
#   `Rainfall(mm)` <dbl>, `Snowfall (cm)` <dbl>, Seasons <chr>, Holiday <chr>,
#   `Functioning Day` <chr>
…
Convert char columns to factors

bike_data <- bike_data |>
  mutate(seasons = factor(seasons,
                          levels = c("Winter", "Spring", "Summer", "Autumn")),
         holiday = as.factor(holiday),
         functioning_day = as.factor(functioning_day))

bike_data

# A tibble: 8,760 × 14
   date       rented_bike_count  hour temperature humidity wind_speed visibility
   <date>                 <dbl> <dbl>       <dbl>    <dbl>      <dbl>      <dbl>
 1 2017-12-01               254     0        -5.2       37        2.2       2000
 2 2017-12-01               204     1        -5.5       38        0.8       2000
 3 2017-12-01               173     2        -6         39        1         2000
 4 2017-12-01               107     3        -6.2       40        0.9       2000
 5 2017-12-01                78     4        -6         36        2.3       2000
 6 2017-12-01               100     5        -6.4       37        1.5       2000
 7 2017-12-01               181     6        -6.6       35        1.3       2000
 8 2017-12-01               460     7        -7.4       38        0.9       2000
 9 2017-12-01               930     8        -7.6       37        1.1       2000
10 2017-12-01               490     9        -6.5       27        0.5       1928
# ℹ 8,750 more rows
# ℹ 7 more variables: dew_point <dbl>, solar_radiation <dbl>, rainfall <dbl>,
#   snowfall <dbl>, seasons <fct>, holiday <fct>, functioning_day <fct>
…
taking the mean of temperature, humidity, wind_speed, visibility, dew_point, solar_radiation

bike_rollup <- bike_data |>
  filter(functioning_day == "Yes") |>
  group_by(date, seasons, holiday) |>
  summarize(across(c(rented_bike_count, rainfall, snowfall), sum),
            across(c(temperature, humidity, wind_speed, visibility, 
                     dew_point, solar_radiation), mean))

`summarise()` has grouped output by 'date', 'seasons'. You can override using
the `.groups` argument.

bike_rollup

# A tibble: 353 × 12
# Groups:   date, seasons [353]
   date       seasons holiday    rented_bike_count rainfall snowfall temperature
   <date>     <fct>   <fct>                  <dbl>    <dbl>    <dbl>       <dbl>
 1 2017-12-01 Winter  No Holiday              9539      0        0       -2.45  
 2 2017-12-02 Winter  No Holiday              8523      0        0        1.32  
 3 2017-12-03 Winter  No Holiday              7222      4        0        4.88  
 4 2017-12-04 Winter  No Holiday              8729      0.1      0       -0.304 
 5 2017-12-05 Winter  No Holiday              8307      0        0       -4.46  
 6 2017-12-06 Winter  No Holiday              6669      1.3      8.6      0.0458
 7 2017-12-07 Winter  No Holiday              8549      0       10.4      1.09  
 8 2017-12-08 Winter  No Holiday              8032      0        0       -3.82  
 9 2017-12-09 Winter  No Holiday              7233      0        0       -0.846 
10 2017-12-10 Winter  No Holiday              3453      4.1     32.5      1.19  
# ℹ 343 more rows
# ℹ 5 more variables: humidity <dbl>, wind_speed <dbl>, visibility <dbl>,
#   dew_point <dbl>, solar_radiation <dbl>
…
# view data to make sure it looks okay
bike_rec_1 |>
  prep(training = bike_train) |>
  bake(bike_train)

# A tibble: 263 × 15
   date       rainfall snowfall temperature humidity wind_speed visibility
   <date>        <dbl>    <dbl>       <dbl>    <dbl>      <dbl>      <dbl>
 1 2018-09-01   -0.315   -0.179       1.07     0.169     -0.884     0.843 
 2 2018-09-02   -0.315   -0.179       1.03    -0.285     -0.399     1.16  
 3 2018-09-04   -0.315   -0.179       0.884    0.878      0.689     0.0654
 4 2018-09-05   -0.315   -0.179       0.933    0.208      1.24      1.08  
 5 2018-09-06   -0.315   -0.179       0.968    0.821      0.244     0.430 
 6 2018-09-07   -0.187   -0.179       0.790   -0.127      1.20      0.862 
 7 2018-09-08   -0.315   -0.179       0.750   -0.685     -0.132     1.13  
 8 2018-09-09   -0.315   -0.179       0.773   -0.632     -0.843     1.16  
 9 2018-09-12   -0.315   -0.179       0.822   -0.464     -0.699     1.15  
10 2018-09-13   -0.315   -0.179       0.900    0.242     -0.857     1.14  
# ℹ 253 more rows
# ℹ 8 more variables: dew_point <dbl>, solar_radiation <dbl>,
#   rented_bike_count <dbl>, seasons_Spring <dbl>, seasons_Summer <dbl>,
#   seasons_Autumn <dbl>, holiday_No.Holiday <dbl>, part_of_week_Weekend <dbl>
…
bike_rec_2 |>
  prep(training = bike_train) |>
  bake(bike_train)

# A tibble: 263 × 17
   date       rainfall snowfall temperature humidity wind_speed visibility
   <date>        <dbl>    <dbl>       <dbl>    <dbl>      <dbl>      <dbl>
 1 2018-09-01   -0.315   -0.179       1.07     0.169     -0.884     0.843 
 2 2018-09-02   -0.315   -0.179       1.03    -0.285     -0.399     1.16  
 3 2018-09-04   -0.315   -0.179       0.884    0.878      0.689     0.0654
 4 2018-09-05   -0.315   -0.179       0.933    0.208      1.24      1.08  
 5 2018-09-06   -0.315   -0.179       0.968    0.821      0.244     0.430 
 6 2018-09-07   -0.187   -0.179       0.790   -0.127      1.20      0.862 
 7 2018-09-08   -0.315   -0.179       0.750   -0.685     -0.132     1.13  
 8 2018-09-09   -0.315   -0.179       0.773   -0.632     -0.843     1.16  
 9 2018-09-12   -0.315   -0.179       0.822   -0.464     -0.699     1.15  
10 2018-09-13   -0.315   -0.179       0.900    0.242     -0.857     1.14  
# ℹ 253 more rows
# ℹ 10 more variables: solar_radiation <dbl>, rented_bike_count <dbl>,
#   holiday_No.Holiday <dbl>, part_of_week_Weekend <dbl>,
#   holiday_No.Holiday_x_seasons_Spring <dbl>,
#   holiday_No.Holiday_x_seasons_Autumn <dbl>,
#   seasons_Spring_x_temperature <dbl>, seasons_Summer_x_temperature <dbl>,
#   seasons_Autumn_x_temperature <dbl>, temperature_x_rainfall <dbl>
…
bike_rec_3 |>
  prep(training = bike_train) |>
  bake(bike_train)

# A tibble: 263 × 25
   date       rented_bike_count seasons_Spring holiday_No.Holiday
   <date>                 <dbl>          <dbl>              <dbl>
 1 2018-09-01             26010              0                  1
 2 2018-09-02             26881              0                  1
 3 2018-09-04             29529              0                  1
 4 2018-09-05             31114              0                  1
 5 2018-09-06             27838              0                  1
 6 2018-09-07             30381              0                  1
 7 2018-09-08             29813              0                  1
 8 2018-09-09             28354              0                  1
 9 2018-09-12             31809              0                  1
10 2018-09-13             30991              0                  1
# ℹ 253 more rows
# ℹ 21 more variables: part_of_week_Weekend <dbl>,
#   holiday_No.Holiday_x_seasons_Summer <dbl>,
#   holiday_No.Holiday_x_seasons_Autumn <dbl>,
#   seasons_Spring_x_temperature <dbl>, seasons_Autumn_x_temperature <dbl>,
#   temperature_x_rainfall <dbl>, rainfall_poly_1 <dbl>, rainfall_poly_2 <dbl>,
#   snowfall_poly_1 <dbl>, snowfall_poly_2 <dbl>, temperature_poly_1 <dbl>, …
…
Fit model on the test data

# workflow for 2nd model
#lm_fit <- fit(bike_wfl_2, bike_train)

# prediction for bikes rented on the test set
bike_test_res <- bike_wfl_2 |>
  fit(bike_train) |>
  predict(new_data = bike_test)

bike_test_res

# A tibble: 90 × 1
   .pred
   <dbl>
 1 8023.
 2 3000.
 3 1608.
 4 4448.
 5 2922.
 6 6865.
 7 4588.
 8 9390.
 9 6153.
10 5214.
# ℹ 80 more rows
…
